11:11:33;
16:45:19;0.00;49;139;525
16:45:32;0.00;49;136;523
16:45:44;0.00;49;138;524
16:45:57;0.00;49;138;525
16:48:45;0.00;49;136;523
16:48:58;0.00;49;135;523
16:54:42;0.00;48;131;520
16:54:47;0.00;28;53;424
16:54:53;0.00;28;54;424
16:54:55;0.00;28;54;424
16:55:01;0.00;26;45;405
16:55:07;0.00;26;42;398
16:55:10;0.00;25;39;392
16:55:15;0.00;22;31;367
16:55:20;0.00;21;28;361
16:55:25;0.00;19;21;353
16:55:30;0.00;21;26;352
16:55:35;0.00;20;25;350
16:55:40;0.00;22;30;367
16:55:45;0.00;25;39;395
16:55:51;0.00;26;43;403
16:55:56;0.00;24;37;387
16:56:00;0.00;22;29;363
16:56:06;0.00;21;26;353
16:56:10;0.00;20;24;348
16:56:15;0.00;20;24;345
16:56:20;0.00;21;26;356
16:56:25;0.00;22;28;362
16:56:31;0.00;25;38;392
16:56:36;0.00;26;41;398
16:56:42;0.00;26;43;403
16:56:47;0.00;26;43;403
16:56:53;0.00;26;45;408
16:56:59;0.00;26;45;409
16:57:04;0.00;26;46;410
16:57:10;0.00;27;47;410
16:57:15;0.00;27;49;413
16:57:21;0.00;27;48;412
16:57:27;0.00;27;48;413
